qsim_rtl/fir_core/transcript
# do runsim.do
# Model Technology ModelSim DE vmap 2024.2 Lib Mapping Utility 2024.05 May 20 2024
# vmap work work 
# Copying /tools/mentor/ModelSim/2024.2/modelsim_dlx/linuxpe/../modelsim.ini to modelsim.ini
# Modifying modelsim.ini
# Model Technology ModelSim DE vlog 2024.2 Compiler 2024.05 May 20 2024
# Start time: 22:49:46 on Dec 17,2025
# vlog -reportprogress 300 -sv "+acc" -suppress 12110 -incr ../../rtl/fir_core/fir_core.v 
# -- Compiling module alu
# -- Compiling module counter
# -- Compiling module cmem
# -- Compiling module imem
# -- Compiling module fifo
# -- Compiling module fir_fsm
# -- Compiling module fir_core
# 
# Top level modules:
# 	fir_core
# End time: 22:49:48 on Dec 17,2025, Elapsed time: 0:00:02
# Errors: 0, Warnings: 0
# Model Technology ModelSim DE vlog 2024.2 Compiler 2024.05 May 20 2024
# Start time: 22:49:49 on Dec 17,2025
# vlog -reportprogress 300 -sv "+acc" -suppress 12110 -incr test_fir_core.v 
# -- Compiling module testbench
# 
# Top level modules:
# 	testbench
# End time: 22:49:51 on Dec 17,2025, Elapsed time: 0:00:02
# Errors: 0, Warnings: 0
# ** Warning: (vsim-8690) Ignoring plusarg '+acc' with -novopt in effect.
# vsim "+acc" -suppress 12110 -t ps -lib work testbench 
# Start time: 22:49:51 on Dec 17,2025
# //  ModelSim DE 2024.2 May 20 2024 Linux 4.18.0-553.89.1.el8_10.x86_64
# //
# // Unpublished work. Copyright 2024 Siemens
# //
# // This material contains trade secrets or otherwise confidential information
# // owned by Siemens Industry Software Inc. or its affiliates (collectively,
# // "SISW"), or its licensors. Access to and use of this information is strictly
# // limited as set forth in the Customer's applicable agreements with SISW.
# //
# // This material may not be copied, distributed, or otherwise disclosed outside
# // of the Customer's facilities without the express written permission of SISW,
# // and may not be used in any way not expressly authorized by SISW.
# //
# Loading sv_std.std
# Loading work.testbench
# Loading work.fir_core
# Loading work.fifo
# Loading work.cmem
# Loading work.imem
# Loading work.counter
# Loading work.alu
# Loading work.fir_fsm
#                    0: Loaded vectors: X=../../matlab/x_q15_in_hex.txt, C=../../matlab/cmem_in_hex.txt, YQ=../../matlab/y_q79_out.txt, YF32_HEX=../../matlab/y_f32_gold_unquant_hex.txt
#            201500000: CMEM load: caddr=0, cin=21 (0x15)
#            202500000: CMEM load: caddr=1, cin=9 (0x9)
#            203500000: CMEM load: caddr=2, cin=-10 (0xfff6)
#            204500000: CMEM load: caddr=3, cin=-30 (0xffe2)
#            205500000: CMEM load: caddr=4, cin=-44 (0xffd4)
#            206500000: CMEM load: caddr=5, cin=-43 (0xffd5)
#            207500000: CMEM load: caddr=6, cin=-20 (0xffec)
#            208500000: CMEM load: caddr=7, cin=25 (0x19)
#            209500000: CMEM load: caddr=8, cin=79 (0x4f)
#            210500000: CMEM load: caddr=9, cin=117 (0x75)
#            211500000: CMEM load: caddr=10, cin=114 (0x72)
#            212500000: CMEM load: caddr=11, cin=52 (0x34)
#            213500000: CMEM load: caddr=12, cin=-62 (0xffc2)
#            214500000: CMEM load: caddr=13, cin=-190 (0xff42)
#            215500000: CMEM load: caddr=14, cin=-274 (0xfeee)
#            216500000: CMEM load: caddr=15, cin=-259 (0xfefd)
#            217500000: CMEM load: caddr=16, cin=-115 (0xff8d)
#            218500000: CMEM load: caddr=17, cin=133 (0x85)
#            219500000: CMEM load: caddr=18, cin=402 (0x192)
#            220500000: CMEM load: caddr=19, cin=573 (0x23d)
#            221500000: CMEM load: caddr=20, cin=535 (0x217)
#            222500000: CMEM load: caddr=21, cin=237 (0xed)
#            223500000: CMEM load: caddr=22, cin=-274 (0xfeee)
#            224500000: CMEM load: caddr=23, cin=-839 (0xfcb9)
#            225500000: CMEM load: caddr=24, cin=-1221 (0xfb3b)
#            226500000: CMEM load: caddr=25, cin=-1178 (0xfb66)
#            227500000: CMEM load: caddr=26, cin=-547 (0xfddd)
#            228500000: CMEM load: caddr=27, cin=684 (0x2ac)
#            229500000: CMEM load: caddr=28, cin=2346 (0x92a)
#            230500000: CMEM load: caddr=29, cin=4115 (0x1013)
#            231500000: CMEM load: caddr=30, cin=5600 (0x15e0)
#            232500000: CMEM load: caddr=31, cin=6447 (0x192f)
#            233500000: CMEM load: caddr=32, cin=6447 (0x192f)
#            234500000: CMEM load: caddr=33, cin=5600 (0x15e0)
#            235500000: CMEM load: caddr=34, cin=4115 (0x1013)
#            236500000: CMEM load: caddr=35, cin=2346 (0x92a)
#            237500000: CMEM load: caddr=36, cin=684 (0x2ac)
#            238500000: CMEM load: caddr=37, cin=-547 (0xfddd)
#            239500000: CMEM load: caddr=38, cin=-1178 (0xfb66)
#            240500000: CMEM load: caddr=39, cin=-1221 (0xfb3b)
#            241500000: CMEM load: caddr=40, cin=-839 (0xfcb9)
#            242500000: CMEM load: caddr=41, cin=-274 (0xfeee)
#            243500000: CMEM load: caddr=42, cin=237 (0xed)
#            244500000: CMEM load: caddr=43, cin=535 (0x217)
#            245500000: CMEM load: caddr=44, cin=573 (0x23d)
#            246500000: CMEM load: caddr=45, cin=402 (0x192)
#            247500000: CMEM load: caddr=46, cin=133 (0x85)
#            248500000: CMEM load: caddr=47, cin=-115 (0xff8d)
#            249500000: CMEM load: caddr=48, cin=-259 (0xfefd)
#            250500000: CMEM load: caddr=49, cin=-274 (0xfeee)
#            251500000: CMEM load: caddr=50, cin=-190 (0xff42)
#            252500000: CMEM load: caddr=51, cin=-62 (0xffc2)
#            253500000: CMEM load: caddr=52, cin=52 (0x34)
#            254500000: CMEM load: caddr=53, cin=114 (0x72)
#            255500000: CMEM load: caddr=54, cin=117 (0x75)
#            256500000: CMEM load: caddr=55, cin=79 (0x4f)
#            257500000: CMEM load: caddr=56, cin=25 (0x19)
#            258500000: CMEM load: caddr=57, cin=-20 (0xffec)
#            259500000: CMEM load: caddr=58, cin=-43 (0xffd5)
#            260500000: CMEM load: caddr=59, cin=-44 (0xffd4)
#            261500000: CMEM load: caddr=60, cin=-30 (0xffe2)
#            262500000: CMEM load: caddr=61, cin=-10 (0xfff6)
#            263500000: CMEM load: caddr=62, cin=9 (0x9)
#            264500000: CMEM load: caddr=63, cin=21 (0x15)
#            265000000: Finished CMEM load
#            800000000: IN[0] = 0 (0x0)
#            900000000: IN[1] = 26509 (0x678d)
#           1000000000: IN[2] = 19260 (0x4b3c)
#           1019501000: OUT_EVT[1] DUT_Q79=0 (0x0) EXP_Q79[0]=0 (0x0)          [OK]  |  DUT_REAL=0  GOLD_F32HEX=0x00000000 GOLD_F32=0 diff=0  {state=1, q=0, empty=1, full=0, rd_en=0, load_sample=0, counter_clear=0, done_flag=1, acc_shifted=0}
#           1100000000: IN[3] = 10126 (0x278e)
#           1119501000: OUT_EVT[2] DUT_Q79=0 (0x0) EXP_Q79[1]=0 (0x0)          [OK]  |  DUT_REAL=0  GOLD_F32HEX=0x3a0acac9 GOLD_F32=0.000529449957 diff=0.000529449957  {state=1, q=0, empty=1, full=0, rd_en=0, load_sample=0, counter_clear=0, done_flag=1, acc_shifted=0}
#           1200000000: IN[4] = 31163 (0x79bb)
#           1219501000: OUT_EVT[3] DUT_Q79=0 (0x0) EXP_Q79[2]=0 (0x0)          [OK]  |  DUT_REAL=0  GOLD_F32HEX=0x3a1d27a5 GOLD_F32=0.00059949822 diff=0.00059949822  {state=1, q=0, empty=1, full=0, rd_en=0, load_sample=0, counter_clear=0, done_flag=1, acc_shifted=0}
#           1300000000: IN[5] = 32767 (0x7fff)
#           1319501000: OUT_EVT[4] DUT_Q79=0 (0x0) EXP_Q79[3]=0 (0x0)          [OK]  |  DUT_REAL=0  GOLD_F32HEX=0x38f6f26b GOLD_F32=0.00011775348 diff=0.00011775348  {state=1, q=0, empty=1, full=0, rd_en=0, load_sample=0, counter_clear=0, done_flag=1, acc_shifted=0}
#           1400000000: IN[6] = 31163 (0x79bb)
#           1419501000: OUT_EVT[5] DUT_Q79=0 (0x0) EXP_Q79[4]=-1 (0xffff)  **MISMATCH**  |  DUT_REAL=0  GOLD_F32HEX=0xb956f123 GOLD_F32=-0.000204984608 diff=-0.000204984608  {state=1, q=0, empty=1, full=0, rd_en=0, load_sample=0, counter_clear=0, done_flag=1, acc_shifted=0}
#           1500000000: IN[7] = 10126 (0x278e)
#           1519501000: OUT_EVT[6] DUT_Q79=-1 (0xffff) EXP_Q79[5]=-1 (0xffff)          [OK]  |  DUT_REAL=-0.001953125  GOLD_F32HEX=0xb9fb6b77 GOLD_F32=-0.000479545182 diff=0.00147357982  {state=1, q=0, empty=1, full=0, rd_en=0, load_sample=0, counter_clear=0, done_flag=1, acc_shifted=-1}
#           1600000000: IN[8] = 19260 (0x4b3c)
#           1619501000: OUT_EVT[7] DUT_Q79=-1 (0xffff) EXP_Q79[6]=-1 (0xffff)          [OK]  |  DUT_REAL=-0.001953125  GOLD_F32HEX=0xbab7ede7 GOLD_F32=-0.00140326924 diff=0.000549855758  {state=1, q=0, empty=1, full=0, rd_en=0, load_sample=0, counter_clear=0, done_flag=1, acc_shifted=-1}
#           1700000000: IN[9] = 26509 (0x678d)
#           1719501000: OUT_EVT[8] DUT_Q79=-2 (0xfffe) EXP_Q79[7]=-2 (0xfffe)          [OK]  |  DUT_REAL=-0.00390625  GOLD_F32HEX=0xbb26f17e GOLD_F32=-0.00254735304 diff=0.00135889696  {state=1, q=0, empty=1, full=0, rd_en=0, load_sample=0, counter_clear=0, done_flag=1, acc_shifted=-2}
#           1800000000: IN[10] = 0 (0x0)
#           1819501000: OUT_EVT[9] DUT_Q79=-1 (0xffff) EXP_Q79[8]=-2 (0xfffe)  **MISMATCH**  |  DUT_REAL=-0.001953125  GOLD_F32HEX=0xbb2ba591 GOLD_F32=-0.00261912146 diff=-0.000665996457  {state=1, q=0, empty=1, full=0, rd_en=0, load_sample=0, counter_clear=0, done_flag=1, acc_shifted=-1}
#           1900000000: IN[11] = -26509 (0x9873)
#           1919501000: OUT_EVT[10] DUT_Q79=-1 (0xffff) EXP_Q79[9]=-1 (0xffff)          [OK]  |  DUT_REAL=-0.001953125  GOLD_F32HEX=0xbab1345a GOLD_F32=-0.00135196303 diff=0.00060116197  {state=1, q=0, empty=1, full=0, rd_en=0, load_sample=0, counter_clear=0, done_flag=1, acc_shifted=-1}
#           2000000000: IN[12] = -19260 (0xb4c4)
#           2019501000: OUT_EVT[11] DUT_Q79=0 (0x0) EXP_Q79[10]=0 (0x0)          [OK]  |  DUT_REAL=0  GOLD_F32HEX=0x39ed176e GOLD_F32=0.000452216191 diff=0.000452216191  {state=1, q=0, empty=1, full=0, rd_en=0, load_sample=0, counter_clear=0, done_flag=1, acc_shifted=0}
#           2100000000: IN[13] = -10126 (0xd872)
#           2119501000: OUT_EVT[12] DUT_Q79=1 (0x1) EXP_Q79[11]=1 (0x1)          [OK]  |  DUT_REAL=0.001953125  GOLD_F32HEX=0x3b226471 GOLD_F32=0.0024779106 diff=0.000524785602  {state=1, q=0, empty=1, full=0, rd_en=0, load_sample=0, counter_clear=0, done_flag=1, acc_shifted=1}
#           2200000000: IN[14] = -31163 (0x8645)
#           2219501000: OUT_EVT[13] DUT_Q79=2 (0x2) EXP_Q79[12]=2 (0x2)          [OK]  |  DUT_REAL=0.00390625  GOLD_F32HEX=0x3b9aed3b GOLD_F32=0.00472798711 diff=0.000821737107  {state=1, q=0, empty=1, full=0, rd_en=0, load_sample=0, counter_clear=0, done_flag=1, acc_shifted=2}
#           2300000000: IN[15] = -32768 (0x8000)
#           2319501000: OUT_EVT[14] DUT_Q79=2 (0x2) EXP_Q79[13]=2 (0x2)          [OK]  |  DUT_REAL=0.00390625  GOLD_F32HEX=0x3bc5e464 GOLD_F32=0.00603918917 diff=0.00213293917  {state=1, q=0, empty=1, full=0, rd_en=0, load_sample=0, counter_clear=0, done_flag=1, acc_shifted=2}
#           2400000000: IN[16] = -31163 (0x8645)
#           2419501000: OUT_EVT[15] DUT_Q79=1 (0x1) EXP_Q79[14]=1 (0x1)          [OK]  |  DUT_REAL=0.001953125  GOLD_F32HEX=0x3b995272 GOLD_F32=0.0046790177 diff=0.0027258927  {state=1, q=0, empty=1, full=0, rd_en=0, load_sample=0, counter_clear=0, done_flag=1, acc_shifted=1}
#           2500000000: IN[17] = -10126 (0xd872)
#           2519501000: OUT_EVT[16] DUT_Q79=-1 (0xffff) EXP_Q79[15]=-1 (0xffff)          [OK]  |  DUT_REAL=-0.001953125  GOLD_F32HEX=0x3a0f1a2e GOLD_F32=0.000545891817 diff=0.00249901682  {state=1, q=0, empty=1, full=0, rd_en=0, load_sample=0, counter_clear=0, done_flag=1, acc_shifted=-1}
#           2600000000: IN[18] = -19260 (0xb4c4)
#           2619501000: OUT_EVT[17] DUT_Q79=-3 (0xfffd) EXP_Q79[16]=-3 (0xfffd)          [OK]  |  DUT_REAL=-0.005859375  GOLD_F32HEX=0xbb98deed GOLD_F32=-0.0046652467 diff=0.0011941283  {state=1, q=0, empty=1, full=0, rd_en=0, load_sample=0, counter_clear=0, done_flag=1, acc_shifted=-3}
#           2700000000: IN[19] = -26509 (0x9873)
#           2719501000: OUT_EVT[18] DUT_Q79=-5 (0xfffb) EXP_Q79[17]=-5 (0xfffb)          [OK]  |  DUT_REAL=-0.009765625  GOLD_F32HEX=0xbc16c89a GOLD_F32=-0.00920310058 diff=0.000562524423  {state=1, q=0, empty=1, full=0, rd_en=0, load_sample=0, counter_clear=0, done_flag=1, acc_shifted=-5}
#           2800000000: IN[20] = 0 (0x0)
#           2819501000: OUT_EVT[19] DUT_Q79=-5 (0xfffb) EXP_Q79[18]=-5 (0xfffb)          [OK]  |  DUT_REAL=-0.009765625  GOLD_F32HEX=0xbc3df3e1 GOLD_F32=-0.0115937898 diff=-0.00182816479  {state=1, q=0, empty=1, full=0, rd_en=0, load_sample=0, counter_clear=0, done_flag=1, acc_shifted=-5}
#           2900000000: IN[21] = 26509 (0x678d)
#           2919501000: OUT_EVT[20] DUT_Q79=-4 (0xfffc) EXP_Q79[19]=-4 (0xfffc)          [OK]  |  DUT_REAL=-0.0078125  GOLD_F32HEX=0xbc2123c8 GOLD_F32=-0.00983519107 diff=-0.00202269107  {state=1, q=0, empty=1, full=0, rd_en=0, load_sample=0, counter_clear=0, done_flag=1, acc_shifted=-4}
#           3000000000: IN[22] = 19260 (0x4b3c)
#           3019501000: OUT_EVT[21] DUT_Q79=0 (0x0) EXP_Q79[20]=0 (0x0)          [OK]  |  DUT_REAL=0  GOLD_F32HEX=0xbb29b538 GOLD_F32=-0.00258953683 diff=-0.00258953683  {state=1, q=0, empty=1, full=0, rd_en=0, load_sample=0, counter_clear=0, done_flag=1, acc_shifted=0}
#           3100000000: IN[23] = 10126 (0x278e)
#           3119501000: OUT_EVT[22] DUT_Q79=5 (0x5) EXP_Q79[21]=5 (0x5)          [OK]  |  DUT_REAL=0.009765625  GOLD_F32HEX=0x3c099208 GOLD_F32=0.00839663297 diff=-0.00136899203  {state=1, q=0, empty=1, full=0, rd_en=0, load_sample=0, counter_clear=0, done_flag=1, acc_shifted=5}
#           3200000000: IN[24] = 31163 (0x79bb)
#           3219501000: OUT_EVT[23] DUT_Q79=8 (0x8) EXP_Q79[22]=8 (0x8)          [OK]  |  DUT_REAL=0.015625  GOLD_F32HEX=0x3c977554 GOLD_F32=0.0184885636 diff=0.0028635636  {state=1, q=0, empty=1, full=0, rd_en=0, load_sample=0, counter_clear=0, done_flag=1, acc_shifted=8}
#           3300000000: IN[25] = 32767 (0x7fff)
#           3319501000: OUT_EVT[24] DUT_Q79=9 (0x9) EXP_Q79[23]=9 (0x9)          [OK]  |  DUT_REAL=0.017578125  GOLD_F32HEX=0x3cbb465d GOLD_F32=0.0228607003 diff=0.00528257526  {state=1, q=0, empty=1, full=0, rd_en=0, load_sample=0, counter_clear=0, done_flag=1, acc_shifted=9}
#           3400000000: IN[26] = 31163 (0x79bb)
#           3419501000: OUT_EVT[25] DUT_Q79=6 (0x6) EXP_Q79[24]=5 (0x5)  **MISMATCH**  |  DUT_REAL=0.01171875  GOLD_F32HEX=0x3c94cdd3 GOLD_F32=0.0181645509 diff=0.00644580089  {state=1, q=0, empty=1, full=0, rd_en=0, load_sample=0, counter_clear=0, done_flag=1, acc_shifted=6}
#           3500000000: IN[27] = 10126 (0x278e)
#           3519501000: OUT_EVT[26] DUT_Q79=-2 (0xfffe) EXP_Q79[25]=-2 (0xfffe)          [OK]  |  DUT_REAL=-0.00390625  GOLD_F32HEX=0x3b468a88 GOLD_F32=0.00302949734 diff=0.00693574734  {state=1, q=0, empty=1, full=0, rd_en=0, load_sample=0, counter_clear=0, done_flag=1, acc_shifted=-2}
#           3600000000: IN[28] = 19260 (0x4b3c)
#           3619501000: OUT_EVT[27] DUT_Q79=-12 (0xfff4) EXP_Q79[26]=-12 (0xfff4)          [OK]  |  DUT_REAL=-0.0234375  GOLD_F32HEX=0xbca343e1 GOLD_F32=-0.0199298281 diff=0.00350767188  {state=1, q=0, empty=1, full=0, rd_en=0, load_sample=0, counter_clear=0, done_flag=1, acc_shifted=-12}
#           3700000000: IN[29] = 26509 (0x678d)
#           3719501000: OUT_EVT[28] DUT_Q79=-20 (0xffec) EXP_Q79[27]=-20 (0xffec)          [OK]  |  DUT_REAL=-0.0390625  GOLD_F32HEX=0xbd2aef72 GOLD_F32=-0.0417322591 diff=-0.00266975909  {state=1, q=0, empty=1, full=0, rd_en=0, load_sample=0, counter_clear=0, done_flag=1, acc_shifted=-20}
#           3800000000: IN[30] = 0 (0x0)
#           3819501000: OUT_EVT[29] DUT_Q79=-20 (0xffec) EXP_Q79[28]=-20 (0xffec)          [OK]  |  DUT_REAL=-0.0390625  GOLD_F32HEX=0xbd45984b GOLD_F32=-0.048240941 diff=-0.00917844102  {state=1, q=0, empty=1, full=0, rd_en=0, load_sample=0, counter_clear=0, done_flag=1, acc_shifted=-20}
#           3900000000: IN[31] = -26509 (0x9873)
#           3919501000: OUT_EVT[30] DUT_Q79=-5 (0xfffb) EXP_Q79[29]=-5 (0xfffb)          [OK]  |  DUT_REAL=-0.009765625  GOLD_F32HEX=0xbcca29ad GOLD_F32=-0.0246780757 diff=-0.0149124507  {state=1, q=0, empty=1, full=0, rd_en=0, load_sample=0, counter_clear=0, done_flag=1, acc_shifted=-5}
#           4000000000: IN[32] = -19260 (0xb4c4)
#           4019501000: OUT_EVT[31] DUT_Q79=28 (0x1c) EXP_Q79[30]=28 (0x1c)          [OK]  |  DUT_REAL=0.0546875  GOLD_F32HEX=0x3d25ee1f GOLD_F32=0.0405102931 diff=-0.0141772069  {state=1, q=0, empty=1, full=0, rd_en=0, load_sample=0, counter_clear=0, done_flag=1, acc_shifted=28}
#           4100000000: IN[33] = -10126 (0xd872)
#           4119501000: OUT_EVT[32] DUT_Q79=81 (0x51) EXP_Q79[31]=81 (0x51)          [OK]  |  DUT_REAL=0.158203125  GOLD_F32HEX=0x3e1cca02 GOLD_F32=0.153114349 diff=-0.00508877635  {state=1, q=0, empty=1, full=0, rd_en=0, load_sample=0, counter_clear=0, done_flag=1, acc_shifted=81}
#           4200000000: IN[34] = -31163 (0x8645)
#           4219501000: OUT_EVT[33] DUT_Q79=153 (0x99) EXP_Q79[32]=154 (0x9a)  **MISMATCH**  |  DUT_REAL=0.298828125  GOLD_F32HEX=0x3e9e97e6 GOLD_F32=0.309752643 diff=0.0109245181  {state=1, q=0, empty=1, full=0, rd_en=0, load_sample=0, counter_clear=0, done_flag=1, acc_shifted=153}
#           4300000000: IN[35] = -32768 (0x8000)
#           4319501000: OUT_EVT[34] DUT_Q79=237 (0xed) EXP_Q79[33]=237 (0xed)          [OK]  |  DUT_REAL=0.462890625  GOLD_F32HEX=0x3efd720b GOLD_F32=0.495010704 diff=0.0321200788  {state=1, q=0, empty=1, full=0, rd_en=0, load_sample=0, counter_clear=0, done_flag=1, acc_shifted=237}
#           4400000000: IN[36] = -31163 (0x8645)
#           4419501000: OUT_EVT[35] DUT_Q79=320 (0x140) EXP_Q79[34]=321 (0x141)  **MISMATCH**  |  DUT_REAL=0.625  GOLD_F32HEX=0x3f2ee080 GOLD_F32=0.683113098 diff=0.0581130981  {state=1, q=0, empty=1, full=0, rd_en=0, load_sample=0, counter_clear=0, done_flag=1, acc_shifted=320}
#           4500000000: IN[37] = -10126 (0xd872)
#           4519501000: OUT_EVT[36] DUT_Q79=391 (0x187) EXP_Q79[35]=391 (0x187)          [OK]  |  DUT_REAL=0.763671875  GOLD_F32HEX=0x3f57f8bc GOLD_F32=0.843639135 diff=0.0799672604  {state=1, q=0, empty=1, full=0, rd_en=0, load_sample=0, counter_clear=0, done_flag=1, acc_shifted=391}
#           4600000000: IN[38] = -19260 (0xb4c4)
#           4619501000: OUT_EVT[37] DUT_Q79=435 (0x1b3) EXP_Q79[36]=435 (0x1b3)          [OK]  |  DUT_REAL=0.849609375  GOLD_F32HEX=0x3f726f92 GOLD_F32=0.947014928 diff=0.0974055529  {state=1, q=0, empty=1, full=0, rd_en=0, load_sample=0, counter_clear=0, done_flag=1, acc_shifted=435}
#           4700000000: IN[39] = -26509 (0x9873)
#           4719501000: OUT_EVT[38] DUT_Q79=443 (0x1bb) EXP_Q79[37]=443 (0x1bb)          [OK]  |  DUT_REAL=0.865234375  GOLD_F32HEX=0x3f78046a GOLD_F32=0.968817353 diff=0.103582978  {state=1, q=0, empty=1, full=0, rd_en=0, load_sample=0, counter_clear=0, done_flag=1, acc_shifted=443}
#           4800000000: IN[40] = 0 (0x0)
#           4819501000: OUT_EVT[39] DUT_Q79=408 (0x198) EXP_Q79[38]=409 (0x199)  **MISMATCH**  |  DUT_REAL=0.796875  GOLD_F32HEX=0x3f6518cb GOLD_F32=0.894909561 diff=0.0980345607  {state=1, q=0, empty=1, full=0, rd_en=0, load_sample=0, counter_clear=0, done_flag=1, acc_shifted=408}
#           4900000000: IN[41] = 26509 (0x678d)
#           4919501000: OUT_EVT[40] DUT_Q79=331 (0x14b) EXP_Q79[39]=331 (0x14b)          [OK]  |  DUT_REAL=0.646484375  GOLD_F32HEX=0x3f39d83c GOLD_F32=0.725955725 diff=0.0794713497  {state=1, q=0, empty=1, full=0, rd_en=0, load_sample=0, counter_clear=0, done_flag=1, acc_shifted=331}
#           5000000000: IN[42] = 19260 (0x4b3c)
#           5019501000: OUT_EVT[41] DUT_Q79=218 (0xda) EXP_Q79[40]=218 (0xda)          [OK]  |  DUT_REAL=0.42578125  GOLD_F32HEX=0x3ef468ad GOLD_F32=0.477361113 diff=0.0515798628  {state=1, q=0, empty=1, full=0, rd_en=0, load_sample=0, counter_clear=0, done_flag=1, acc_shifted=218}
#           5100000000: IN[43] = 10126 (0x278e)
#           5119501000: OUT_EVT[42] DUT_Q79=80 (0x50) EXP_Q79[41]=80 (0x50)          [OK]  |  DUT_REAL=0.15625  GOLD_F32HEX=0x3e335475 GOLD_F32=0.175126866 diff=0.0188768655  {state=1, q=0, empty=1, full=0, rd_en=0, load_sample=0, counter_clear=0, done_flag=1, acc_shifted=80}
#           5200000000: IN[44] = 31163 (0x79bb)
#           5219501000: OUT_EVT[43] DUT_Q79=-68 (0xffbc) EXP_Q79[42]=-68 (0xffbc)          [OK]  |  DUT_REAL=-0.1328125  GOLD_F32HEX=0xbe17ccaa GOLD_F32=-0.148241669 diff=-0.0154291689  {state=1, q=0, empty=1, full=0, rd_en=0, load_sample=0, counter_clear=0, done_flag=1, acc_shifted=-68}
#           5300000000: IN[45] = 32767 (0x7fff)
#           5319501000: OUT_EVT[44] DUT_Q79=-209 (0xff2f) EXP_Q79[43]=-210 (0xff2e)  **MISMATCH**  |  DUT_REAL=-0.408203125  GOLD_F32HEX=0xbeea07b1 GOLD_F32=-0.457089931 diff=-0.0488868058  {state=1, q=0, empty=1, full=0, rd_en=0, load_sample=0, counter_clear=0, done_flag=1, acc_shifted=-209}
#           5400000000: IN[46] = 31163 (0x79bb)
#           5419501000: OUT_EVT[45] DUT_Q79=-329 (0xfeb7) EXP_Q79[44]=-330 (0xfeb6)  **MISMATCH**  |  DUT_REAL=-0.642578125  GOLD_F32HEX=0xbf37b65d GOLD_F32=-0.717626393 diff=-0.0750482678  {state=1, q=0, empty=1, full=0, rd_en=0, load_sample=0, counter_clear=0, done_flag=1, acc_shifted=-329}
#           5500000000: IN[47] = 10126 (0x278e)
#           5519501000: OUT_EVT[46] DUT_Q79=-416 (0xfe60) EXP_Q79[45]=-416 (0xfe60)          [OK]  |  DUT_REAL=-0.8125  GOLD_F32HEX=0xbf674a10 GOLD_F32=-0.903473854 diff=-0.0909738541  {state=1, q=0, empty=1, full=0, rd_en=0, load_sample=0, counter_clear=0, done_flag=1, acc_shifted=-416}
#           5600000000: IN[48] = 19260 (0x4b3c)
#           5619501000: OUT_EVT[47] DUT_Q79=-460 (0xfe34) EXP_Q79[46]=-460 (0xfe34)          [OK]  |  DUT_REAL=-0.8984375  GOLD_F32HEX=0xbf7f79ac GOLD_F32=-0.997950315 diff=-0.0995128155  {state=1, q=0, empty=1, full=0, rd_en=0, load_sample=0, counter_clear=0, done_flag=1, acc_shifted=-460}
#           5700000000: IN[49] = 26509 (0x678d)
#           5719501000: OUT_EVT[48] DUT_Q79=-459 (0xfe35) EXP_Q79[47]=-459 (0xfe35)          [OK]  |  DUT_REAL=-0.896484375  GOLD_F32HEX=0xbf7e5047 GOLD_F32=-0.993412435 diff=-0.0969280601  {state=1, q=0, empty=1, full=0, rd_en=0, load_sample=0, counter_clear=0, done_flag=1, acc_shifted=-459}
#           5800000000: IN[50] = 0 (0x0)
#           5819501000: OUT_EVT[49] DUT_Q79=-412 (0xfe64) EXP_Q79[48]=-412 (0xfe64)          [OK]  |  DUT_REAL=-0.8046875  GOLD_F32HEX=0xbf642e7a GOLD_F32=-0.891334176 diff=-0.0866466761  {state=1, q=0, empty=1, full=0, rd_en=0, load_sample=0, counter_clear=0, done_flag=1, acc_shifted=-412}
#           5900000000: IN[51] = -26509 (0x9873)
#           5919501000: OUT_EVT[50] DUT_Q79=-325 (0xfebb) EXP_Q79[49]=-325 (0xfebb)          [OK]  |  DUT_REAL=-0.634765625  GOLD_F32HEX=0xbf33ff29 GOLD_F32=-0.703112185 diff=-0.06834656  {state=1, q=0, empty=1, full=0, rd_en=0, load_sample=0, counter_clear=0, done_flag=1, acc_shifted=-325}
#           6000000000: IN[52] = -19260 (0xb4c4)
#           6019501000: OUT_EVT[51] DUT_Q79=-208 (0xff30) EXP_Q79[50]=-207 (0xff31)  **MISMATCH**  |  DUT_REAL=-0.40625  GOLD_F32HEX=0xbee59cb5 GOLD_F32=-0.448461205 diff=-0.0422112048  {state=1, q=0, empty=1, full=0, rd_en=0, load_sample=0, counter_clear=0, done_flag=1, acc_shifted=-208}
#           6100000000: IN[53] = -10126 (0xd872)
#           6119501000: OUT_EVT[52] DUT_Q79=-71 (0xffb9) EXP_Q79[51]=-70 (0xffba)  **MISMATCH**  |  DUT_REAL=-0.138671875  GOLD_F32HEX=0xbe1b8e61 GOLD_F32=-0.15191032 diff=-0.0132384449  {state=1, q=0, empty=1, full=0, rd_en=0, load_sample=0, counter_clear=0, done_flag=1, acc_shifted=-71}
#           6200000000: IN[54] = -31163 (0x8645)
#           6219501000: OUT_EVT[53] DUT_Q79=73 (0x49) EXP_Q79[52]=73 (0x49)          [OK]  |  DUT_REAL=0.142578125  GOLD_F32HEX=0x3e22ef5c GOLD_F32=0.159116209 diff=0.0165380836  {state=1, q=0, empty=1, full=0, rd_en=0, load_sample=0, counter_clear=0, done_flag=1, acc_shifted=73}
#           6300000000: IN[55] = -32768 (0x8000)
#           6319501000: OUT_EVT[54] DUT_Q79=209 (0xd1) EXP_Q79[53]=209 (0xd1)          [OK]  |  DUT_REAL=0.408203125  GOLD_F32HEX=0x3ee8ef8d GOLD_F32=0.454952627 diff=0.0467495024  {state=1, q=0, empty=1, full=0, rd_en=0, load_sample=0, counter_clear=0, done_flag=1, acc_shifted=209}
#           6400000000: IN[56] = -31163 (0x8645)
#           6419501000: OUT_EVT[55] DUT_Q79=325 (0x145) EXP_Q79[54]=325 (0x145)          [OK]  |  DUT_REAL=0.634765625  GOLD_F32HEX=0x3f34d933 GOLD_F32=0.706439197 diff=0.0716735721  {state=1, q=0, empty=1, full=0, rd_en=0, load_sample=0, counter_clear=0, done_flag=1, acc_shifted=325}
#           6500000000: IN[57] = -10126 (0xd872)
#           6519501000: OUT_EVT[56] DUT_Q79=409 (0x199) EXP_Q79[55]=409 (0x199)          [OK]  |  DUT_REAL=0.798828125  GOLD_F32HEX=0x3f63a69b GOLD_F32=0.889260948 diff=0.0904328227  {state=1, q=0, empty=1, full=0, rd_en=0, load_sample=0, counter_clear=0, done_flag=1, acc_shifted=409}
#           6600000000: IN[58] = -19260 (0xb4c4)
#           6619501000: OUT_EVT[57] DUT_Q79=454 (0x1c6) EXP_Q79[56]=454 (0x1c6)          [OK]  |  DUT_REAL=0.88671875  GOLD_F32HEX=0x3f7c7798 GOLD_F32=0.986199856 diff=0.0994811058  {state=1, q=0, empty=1, full=0, rd_en=0, load_sample=0, counter_clear=0, done_flag=1, acc_shifted=454}
#           6700000000: IN[59] = -26509 (0x9873)
#           6719501000: OUT_EVT[58] DUT_Q79=454 (0x1c6) EXP_Q79[57]=454 (0x1c6)          [OK]  |  DUT_REAL=0.88671875  GOLD_F32HEX=0x3f7cc292 GOLD_F32=0.987343907 diff=0.100625157  {state=1, q=0, empty=1, full=0, rd_en=0, load_sample=0, counter_clear=0, done_flag=1, acc_shifted=454}
#           6800000000: IN[60] = 0 (0x0)
